{
  "details": {
    "label": "{{label}} details",
    "highlights": {
      "active": "Active today",
      "last7": "Active last 7 days",
      "registered": "Registered users"
    },
    "chart": {
      "active": "Active users",
      "last7": "Active users last 7 days",
      "inactive": "Inactive users"
    }
  },
  "itemDetails": {
    "fields": {
      "identifier": "Identifier",
      "created": "Created",
      "createdBy": "Created by",
      "lastAuthenticated": "Last authenticated",
      "role": "Role",
      "settings": "Settings"
    },
    "settings": {
      "lang": "Language"
    }
  },
  "grid": {
    "columns": {
      "1": "Name",
      "2": "Role",
      "3": "Since"
    }
  }
}
