{
  "application": {
    "forms": {
      "actions": {
        "reset": "Reset",
        "submit": "Submit"
      }
    },
    "title": "Handbook"
  },
  "routes": {
    "main": {
      "singular": "home",
      "plural": "home"
    },
    "clients": {
      "singular": "client",
      "plural": "clients"
    },
    "statistics": {
      "singular": "statistics",
      "plural": "statistics"
    },
    "products": {
      "singular": "product",
      "plural": "products"
    },
    "stocks": {
      "singular": "stock",
      "plural": "stocks"
    },
    "activity": {
      "singular": "activity",
      "plural": "activities"
    },
    "stock": {
      "singular": "stock",
      "plural": "stock"
    },
    "transaction": {
      "singular": "transaction",
      "plural": "transactions"
    },
    "barcodes": {
      "singular": "barcode",
      "plural": "barcodes"
    },
    "/logout": {
      "singular": "logout",
      "plural": "logout"
    },
    "settings": {
      "singular": "setting",
      "plural": "settings"
    },
    "users": {
      "singular": "user",
      "plural": "users"
    },
    "rights": {
      "singular": "right",
      "plural": "rights"
    },
    "limits": {
      "singular": "limit",
      "plural": "limits"
    },
    "alerts": {
      "singular": "alert",
      "plural": "alerts"
    }
  }
}
